{
    "packageDirectories": [
        {
            "path": "force-app",
            "default": true
        },
        {
            "path": "force-app/main/default",
            "package": "GitLab CI",
            "versionName": "ver 0.1",
            "versionNumber": "0.1.0.NEXT",
            "default": false
        }
    ],
    "namespace": "",
    "sfdcLoginUrl": "https://login.salesforce.com",
    "sourceApiVersion": "44.0",
    "packageAliases": {
        "GitLab CI": "0Ho4J000000KyjLSAS",
        "GitLab CI@0.1.0-1": "04t4J000000P4qvQAC"
    }
}